104
10.0, 10.0
25.0, 25.0
10.0, 25.0
25.0, 40.0
40.0, 40.0
40.0, 25.0
25.0, 10.0
55.0, -5.0
25.0, -5.0
55.0, 25.0
55.0, 55.0
25.0, 55.0
-5.0, 55.0
-5.0, 25.0
-5.0, -5.0
15.0, 15.0
20.0, 20.0
17.5, 25.0
25.0, 32.5
30.0, 30.0
35.0, 35.0
32.5, 25.0
25.0, 17.5
47.5, -5.0
40.0, -5.0
32.5, -5.0
55.0, 17.5
55.0, 10.0
55.0, 2.5
55.0, 47.5
55.0, 40.0
55.0, 32.5
32.5, 55.0
40.0, 55.0
47.5, 55.0
2.5, 55.0
10.0, 55.0
17.5, 55.0
-5.0, 32.5
-5.0, 40.0
-5.0, 47.5
-5.0, 2.5
-5.0, 10.0
-5.0, 17.5
17.5, -5.0
10.0, -5.0
2.5, -5.0
41.1245155, 32.427475
32.4054642, 41.1195602
8.87548351, 17.572525
17.5945377, 8.8804388
2.1403091, 21.2445107
13.6763811, 32.8338051
21.2375984, 47.8654861
47.8596916, 28.7554893
36.3236198, 17.1661949
28.7624016, 2.13451576
43.8058395, 1.81202602
36.439682, 2.15369415
48.0515709, 21.161684
48.1792564, 13.806819
47.9737854, 44.5600433
47.8263321, 36.3738365
28.7282944, 47.8250008
36.0062637, 47.9076767
42.2960091, 48.4935455
6.19416189, 48.187973
13.560317, 47.8463058
1.94843054, 28.838316
1.82074296, 36.1931801
2.02621365, 5.43995476
2.17366767, 13.6261654
21.2717056, 2.17499757
13.9937344, 2.09232497
7.70398951, 1.50645602
14.2750969, 20.5145054
35.7249031, 29.4854946
20.5939598, 32.6860847
29.4060402, 17.3139172
50.6485443, 1.9611758
-0.648545027, 48.038826
17.1851692, 40.2455597
32.8148308, 9.75444031
42.7023354, 17.378603
41.1215706, 9.9324007
7.29766273, 32.6213951
8.87842846, 40.0676003
20.5189075, 14.2760878
29.4810925, 35.7239113
2.24895763, 42.4975166
47.7510414, 7.50248432
17.5, 25.0
25.0, 25.0
32.5, 25.0
25.0, 32.5
25.0, 25.0
25.0, 25.0
25.0, 17.5
15.0, 15.0
20.0, 20.0
25.0, 25.0
35.0, 35.0
30.0, 30.0
25.0, 25.0
148
88, 23, 17
72, 52, 44
72, 50, 52
75, 47, 46
73, 45, 9
88, 17, 16
78, 92, 93
82, 53, 78
70, 39, 69
89, 21, 49
64, 33, 12
68, 38, 37
77, 48, 102
63, 55, 32
63, 48, 55
66, 35, 34
79, 22, 2
83, 56, 79
61, 27, 60
57, 9, 26
76, 50, 99
51, 16, 1
18, 100, 101
76, 100, 18
78, 93, 19
76, 18, 3
20, 95, 96
78, 53, 92
94, 103, 104
77, 103, 94
49, 21, 5
89, 20, 21
79, 2, 98
77, 94, 6
79, 56, 22
23, 97, 17
80, 8, 29
84, 61, 60
85, 61, 84
60, 10, 55
85, 84, 56
80, 58, 24
35, 30, 11
62, 31, 30
63, 62, 5
64, 54, 4
65, 49, 5
66, 65, 5
81, 13, 41
86, 70, 69
87, 70, 86
69, 14, 52
87, 86, 53
81, 67, 36
47, 42, 15
71, 43, 42
72, 71, 1
73, 57, 7
74, 51, 1
75, 74, 1
48, 5, 102
55, 48, 6
89, 49, 4
66, 5, 62
50, 1, 99
52, 50, 3
88, 51, 7
75, 1, 71
69, 52, 3
52, 14, 44
53, 3, 92
82, 78, 4
64, 4, 49
54, 12, 38
60, 55, 6
55, 10, 32
56, 6, 22
83, 79, 7
59, 26, 25
73, 7, 51
58, 25, 24
80, 24, 8
59, 57, 26
59, 25, 58
84, 6, 56
60, 27, 10
91, 80, 28
61, 28, 27
62, 30, 35
63, 5, 48
63, 32, 31
63, 31, 62
65, 64, 49
64, 12, 54
65, 34, 33
65, 33, 64
66, 62, 35
66, 34, 65
67, 37, 36
81, 36, 13
68, 54, 38
68, 37, 67
86, 3, 53
69, 39, 14
90, 81, 40
70, 40, 39
71, 42, 47
72, 1, 50
72, 44, 43
72, 43, 71
74, 73, 51
73, 9, 57
74, 46, 45
74, 45, 73
75, 71, 47
75, 46, 74
76, 3, 50
76, 99, 100
77, 6, 48
77, 102, 103
78, 19, 4
82, 4, 54
79, 98, 7
83, 7, 57
80, 29, 28
91, 28, 61
81, 41, 40
90, 40, 70
82, 54, 68
87, 68, 67
83, 57, 59
85, 59, 58
84, 60, 6
85, 56, 83
85, 83, 59
91, 85, 58
86, 69, 3
87, 53, 82
87, 82, 68
90, 87, 67
88, 16, 51
88, 7, 23
89, 4, 95
89, 95, 20
90, 70, 87
90, 67, 81
91, 61, 85
91, 58, 80
