23
2.908245 4.198874 -0.000000
2.967161 4.121889 -0.000000
3.026077 4.044903 -0.000000
3.084993 3.967918 -0.000000
3.143909 3.890933 -0.000000
3.202826 3.813948 -0.000000
3.261742 3.736962 -0.000000
3.320658 3.659977 -0.000000
3.379574 3.582992 -0.000000
3.438490 3.506007 -0.000000
3.497406 3.429021 -0.000000
3.556322 3.352036 -0.000000
3.615238 3.275051 0.000000
3.674154 3.198066 0.000000
3.733070 3.121080 0.000000
3.791986 3.044095 0.000000
3.850903 2.967110 0.000000
3.909819 2.890125 0.000000
3.968735 2.813139 0.000000
4.027651 2.736154 0.000000
4.086567 2.659169 0.000000
4.145483 2.582184 0.000000
4.204399 2.505198 0.000000
40
3.772349 1.007012 -0.000000
3.738092 1.087041 -0.000000
3.703835 1.167070 -0.000000
3.669578 1.247099 -0.000000
3.635321 1.327128 -0.000000
3.601063 1.407157 -0.000000
3.566806 1.487186 -0.000000
3.532549 1.567215 -0.000000
3.532549 1.567215 -0.000000
3.496663 1.651048 -0.000000
3.460778 1.734882 -0.000000
3.424892 1.818715 -0.000000
3.389007 1.902548 -0.000000
3.353121 1.986382 -0.000000
3.317235 2.070215 -0.000000
3.281350 2.154049 -0.000000
3.245464 2.237882 -0.000000
3.209578 2.321715 -0.000000
3.173693 2.405549 -0.000000
3.173693 2.405549 -0.000000
3.135260 2.495333 -0.000000
3.096827 2.585117 0.000000
3.058394 2.674902 0.000000
3.019961 2.764686 0.000000
2.981528 2.854470 0.000000
2.943095 2.944254 0.000000
2.904662 3.034039 0.000000
2.866229 3.123823 0.000000
2.827796 3.213607 0.000000
2.789363 3.303392 0.000000
2.750930 3.393176 0.000000
2.712497 3.482960 0.000000
2.674064 3.572745 0.000000
2.635631 3.662529 0.000000
2.597198 3.752313 0.000000
2.558765 3.842098 0.000000
2.520332 3.931882 0.000000
2.481899 4.021666 0.000000
2.443466 4.111450 0.000000
2.405033 4.201235 0.000000
32
2.517963 1.011174 0.000000
2.455790 1.075811 0.000000
2.394776 1.139243 0.000000
2.334900 1.201492 0.000000
2.276140 1.262581 0.000000
2.218475 1.322532 0.000000
2.161885 1.381364 0.000000
2.106351 1.439100 0.000000
2.051851 1.495760 0.000000
1.998368 1.551363 0.000000
1.998368 1.551363 0.000000
1.947788 1.603947 0.000000
1.897685 1.656036 0.000000
1.897685 1.656036 0.000000
1.849797 1.705822 0.000000
1.800515 1.757057 0.000000
1.749799 1.809784 0.000000
1.697606 1.864046 0.000000
1.643894 1.919887 0.000000
1.643894 1.919887 0.000000
1.585181 1.980927 0.000000
1.526060 2.042390 0.000000
1.526060 2.042390 0.000000
1.478220 2.092127 0.000000
1.431383 2.140820 0.000000
1.373589 2.200905 0.000000
1.315186 2.261623 0.000000
1.256167 2.322980 0.000000
1.196527 2.384985 0.000000
1.136257 2.447643 0.000000
1.075353 2.510961 0.000000
1.013806 2.574947 0.000000
40
1.033333 3.673412 0.000000
1.067691 3.620705 0.000000
1.092224 3.583069 0.000000
1.116757 3.545433 0.000000
1.151115 3.492726 0.000000
1.151115 3.492726 0.000000
1.194668 3.425914 0.000000
1.238220 3.359102 0.000000
1.281773 3.292290 0.000000
1.325325 3.225477 0.000000
1.372851 3.152571 0.000000
1.417623 3.083888 0.000000
1.459801 3.019184 0.000000
1.499536 2.958229 0.000000
1.527424 2.915447 0.000000
1.558847 2.867241 0.000000
1.558847 2.867241 0.000000
1.593079 2.814727 0.000000
1.621078 2.771775 0.000000
1.652157 2.724098 0.000000
1.683309 2.676309 0.000000
1.719969 2.620070 0.000000
1.758115 2.561553 0.000000
1.797806 2.500664 0.000000
1.839106 2.437308 0.000000
1.882079 2.371384 0.000000
1.926794 2.302789 0.000000
1.973321 2.231415 0.000000
2.021733 2.157148 0.000000
2.072107 2.079871 0.000000
2.124522 1.999463 0.000000
2.173545 1.924258 0.000000
2.222569 1.849053 0.000000
2.271593 1.773848 0.000000
2.320616 1.698643 0.000000
2.369640 1.623438 0.000000
2.418663 1.548232 0.000000
2.467687 1.473027 0.000000
2.516711 1.397822 0.000000
2.565734 1.322617 0.000000
27
2.023766 2.475783 -0.000000
2.061326 2.453165 -0.000000
2.104290 2.427293 -0.000000
2.153435 2.397698 -0.000000
2.209652 2.363845 -0.000000
2.273957 2.325122 -0.000000
2.347514 2.280827 -0.000000
2.428451 2.232088 -0.000000
2.509388 2.183348 -0.000000
2.590325 2.134609 -0.000000
2.671262 2.085870 -0.000000
2.671262 2.085870 -0.000000
2.741964 2.043294 -0.000000
2.806965 2.004151 -0.000000
2.874158 1.963689 0.000000
2.942490 1.922540 0.000000
3.011981 1.880694 0.000000
3.082650 1.838138 0.000000
3.154517 1.794861 0.000000
3.227602 1.750850 0.000000
3.301927 1.706092 0.000000
3.377512 1.660576 0.000000
3.454379 1.614288 0.000000
3.532549 1.567215 0.000000
3.532549 1.567215 0.000000
3.614433 1.517906 0.000000
3.696317 1.468596 0.000000
13
2.523402 2.532883 0.000000
2.505041 2.582095 0.000000
2.486062 2.632965 0.000000
2.466444 2.685548 0.000000
2.446165 2.739900 0.000000
2.423665 2.800206 0.000000
2.398062 2.868829 0.000000
2.368928 2.946918 0.000000
2.368928 2.946918 0.000000
2.334846 3.038267 0.000000
2.300764 3.129616 0.000000
2.266683 3.220965 0.000000
2.232601 3.312314 0.000000
9
1.581646 1.715685 -0.000000
1.571043 1.778005 -0.000000
1.560371 1.840726 -0.000000
1.549632 1.903849 -0.000000
1.537887 1.972880 0.000000
1.526060 2.042390 0.000000
1.526060 2.042390 0.000000
1.512060 2.124677 0.000000
1.498353 2.205238 0.000000
9
1.694555 1.603999 -0.000000
1.684246 1.668281 -0.000000
1.674261 1.730538 -0.000000
1.664203 1.793251 -0.000000
1.654081 1.856366 0.000000
1.643894 1.919887 0.000000
1.643894 1.919887 0.000000
1.629471 2.009815 0.000000
1.614918 2.100557 0.000000
13
1.987569 2.703081 -0.000000
1.927160 2.726212 -0.000000
1.862649 2.750914 -0.000000
1.817184 2.768323 -0.000000
1.769764 2.786480 -0.000000
1.769764 2.786480 -0.000000
1.720668 2.805279 -0.000000
1.672496 2.823724 0.000000
1.619538 2.844002 0.000000
1.558847 2.867241 0.000000
1.558847 2.867241 0.000000
1.492466 2.892659 0.000000
1.433553 2.915217 0.000000
10
1.964582 1.762026 0.000000
1.972000 1.715768 0.000000
1.979476 1.669154 0.000000
1.988877 1.610537 0.000000
1.998368 1.551363 0.000000
1.998368 1.551363 0.000000
2.011155 1.471633 0.000000
2.024105 1.390883 0.000000
2.033801 1.330431 0.000000
2.044219 1.265468 0.000000
10
1.866254 1.870247 0.000000
1.875510 1.807161 0.000000
1.883871 1.750183 0.000000
1.890751 1.703290 0.000000
1.897685 1.656036 0.000000
1.897685 1.656036 0.000000
1.906223 1.597848 0.000000
1.914842 1.539107 0.000000
1.926647 1.458654 0.000000
1.938603 1.377170 0.000000
20
1.219922 4.198557 -0.000000
1.278015 4.123753 -0.000000
1.336109 4.048950 -0.000000
1.394202 3.974146 -0.000000
1.452295 3.899343 -0.000000
1.510388 3.824540 -0.000000
1.568482 3.749736 -0.000000
1.626575 3.674933 -0.000000
1.684668 3.600130 -0.000000
1.742762 3.525326 -0.000000
1.800855 3.450523 0.000000
1.858948 3.375720 0.000000
1.917042 3.300916 0.000000
1.975135 3.226113 0.000000
2.033228 3.151310 0.000000
2.091322 3.076506 0.000000
2.149415 3.001703 0.000000
2.149415 3.001703 0.000000
2.210788 2.922677 0.000000
2.272160 2.843651 0.000000
28
2.814944 2.383121 0.000000
2.790357 2.414201 0.000000
2.761209 2.451046 0.000000
2.761209 2.451046 0.000000
2.708562 2.517596 0.000000
2.654822 2.585527 0.000000
2.599968 2.654867 0.000000
2.543975 2.725646 0.000000
2.486820 2.797894 0.000000
2.428479 2.871641 0.000000
2.368928 2.946918 0.000000
2.368928 2.946918 0.000000
2.307370 3.024731 0.000000
2.245813 3.102545 0.000000
2.184255 3.180358 0.000000
2.122697 3.258171 0.000000
2.061140 3.335985 0.000000
1.999582 3.413798 0.000000
1.938025 3.491611 0.000000
1.876467 3.569425 0.000000
1.814909 3.647238 0.000000
1.753352 3.725051 0.000000
1.691794 3.802865 0.000000
1.630236 3.880678 0.000000
1.568679 3.958491 0.000000
1.507121 4.036304 0.000000
1.445564 4.114118 0.000000
1.384006 4.191931 0.000000
12
2.650947 2.463208 -0.000000
2.704798 2.457268 -0.000000
2.761209 2.451046 -0.000000
2.761209 2.451046 -0.000000
2.839032 2.442462 -0.000000
2.919124 2.433628 -0.000000
3.001552 2.424536 0.000000
3.086385 2.415179 0.000000
3.173693 2.405549 0.000000
3.173693 2.405549 0.000000
3.238638 2.398385 0.000000
3.303583 2.391222 0.000000
34
1.699722 2.894829 0.000000
1.734410 2.841170 0.000000
1.769764 2.786480 0.000000
1.769764 2.786480 0.000000
1.803910 2.733658 0.000000
1.836650 2.683013 0.000000
1.836650 2.683013 0.000000
1.872224 2.627982 0.000000
1.911464 2.567281 0.000000
1.942252 2.519653 0.000000
1.966764 2.481736 0.000000
1.986278 2.451549 0.000000
2.010349 2.414312 0.000000
2.035962 2.374692 0.000000
2.063213 2.332535 0.000000
2.092210 2.287680 0.000000
2.123062 2.239954 0.000000
2.155889 2.189173 0.000000
2.190817 2.135142 0.000000
2.227980 2.077653 0.000000
2.267523 2.016483 0.000000
2.309596 1.951399 0.000000
2.354363 1.882148 0.000000
2.401995 1.808465 0.000000
2.452676 1.730065 0.000000
2.504497 1.649901 0.000000
2.556319 1.569736 0.000000
2.608141 1.489571 0.000000
2.659963 1.409406 0.000000
2.711785 1.329241 0.000000
2.763607 1.249076 0.000000
2.815429 1.168912 0.000000
2.867251 1.088747 0.000000
2.919073 1.008582 0.000000
19
1.004074 3.599884 0.000000
1.046967 3.568626 0.000000
1.077595 3.546305 0.000000
1.108222 3.523985 0.000000
1.151115 3.492726 0.000000
1.151115 3.492726 0.000000
1.220099 3.442453 0.000000
1.285934 3.394476 0.000000
1.348762 3.348689 0.000000
1.406977 3.306264 0.000000
1.458879 3.268440 0.000000
1.505152 3.234717 0.000000
1.546408 3.204651 0.000000
1.593000 3.170697 0.000000
1.655872 3.124878 0.000000
1.655872 3.124878 0.000000
1.723132 3.075861 0.000000
1.788290 3.028377 0.000000
1.851411 2.982376 0.000000
20
1.514064 3.160270 0.000000
1.555198 3.150004 0.000000
1.584968 3.142574 0.000000
1.614737 3.135144 0.000000
1.655872 3.124878 0.000000
1.655872 3.124878 0.000000
1.730704 3.106202 0.000000
1.803198 3.088109 0.000000
1.873425 3.070583 0.000000
1.962516 3.048348 0.000000
2.054482 3.025396 0.000000
2.149415 3.001703 0.000000
2.149415 3.001703 0.000000
2.222586 2.983441 0.000000
2.295757 2.965180 0.000000
2.368928 2.946918 0.000000
2.368928 2.946918 0.000000
2.444441 2.928072 0.000000
2.519954 2.909226 0.000000
2.595467 2.890380 0.000000
18
1.739620 2.713016 -0.000000
1.786813 2.698423 -0.000000
1.836650 2.683013 -0.000000
1.836650 2.683013 -0.000000
1.882620 2.668798 -0.000000
1.926620 2.655193 -0.000000
1.968734 2.642170 -0.000000
2.019449 2.626489 -0.000000
2.078372 2.608269 -0.000000
2.146834 2.587100 0.000000
2.237733 2.558993 0.000000
2.324933 2.532029 0.000000
2.372814 2.517224 0.000000
2.422726 2.501790 0.000000
2.422726 2.501790 0.000000
2.468482 2.487642 0.000000
2.505841 2.476090 0.000000
2.570716 2.456030 0.000000
12
2.352120 2.619950 0.000000
2.386690 2.562097 0.000000
2.422726 2.501790 0.000000
2.422726 2.501790 0.000000
2.472433 2.418606 0.000000
2.522141 2.335422 0.000000
2.571848 2.252238 0.000000
2.621555 2.169054 0.000000
2.671262 2.085870 0.000000
2.671262 2.085870 0.000000
2.719246 2.005569 0.000000
2.763362 1.931743 0.000000










